{
    "name": "Kira",
    "image" : "KiraAuthorPic.jpg",
    "bio": "Hufflepuff, Homemaker, Baker, Crafter, Painter",
    "social": [
        { "instagram": "https://instagram.com/allderhallows" }
    ]
}